190412-00:10:09 [INFO] -- 
190412-00:10:09 [INFO] -- 
190412-00:10:09 [INFO] -- ============================================================
190412-00:10:09 [INFO] -- ATMSSStarter: Application Starting...
190412-00:10:12 [INFO] -- timer: starting...
190412-00:10:12 [INFO] -- CardReaderHandler: starting...
190412-00:10:12 [INFO] -- KeypadHandler: starting...
190412-00:10:12 [INFO] -- CashDepositCollectorHandler: starting...
190412-00:10:12 [INFO] -- CashDispenserHandler: starting...
190412-00:10:12 [INFO] -- TouchDisplayHandler: starting...
190412-00:10:12 [INFO] -- AdvicePrinterHandler: starting...
190412-00:10:12 [INFO] -- BuzzerHandler: starting...
190412-00:10:12 [INFO] -- ATMSS: starting...
190412-00:10:25 [INFO] -- KeyPressed: 2
190412-00:10:25 [INFO] -- BuzzerHandler: sound command -- SoundOne
190412-00:10:50 [INFO] -- 
190412-00:10:50 [INFO] -- 
190412-00:10:50 [INFO] -- ============================================================
190412-00:10:50 [INFO] -- ATMSSStarter: Application Stopping...
190412-00:10:50 [INFO] -- ATMSS: terminating...
190412-00:10:50 [INFO] -- CardReaderHandler: terminating...
190412-00:10:50 [INFO] -- KeypadHandler: terminating...
190412-00:10:50 [INFO] -- timer: received terminate!
190412-00:10:50 [INFO] -- timer: terminating...
190412-00:10:50 [INFO] -- AdvicePrinterHandler: terminating...
190412-00:10:50 [INFO] -- CashDispenserHandler: terminating...
190412-00:10:50 [INFO] -- BuzzerHandler: terminating...
190412-00:10:50 [INFO] -- CashDepositCollectorHandler: terminating...
190412-00:10:50 [INFO] -- TouchDisplayHandler: terminating...
